^D:\GC2A21\C++\CPP_KADAI\課題17\X64\DEBUG\CHARACTOR.OBJ|D:\GC2A21\C++\CPP_KADAI\課題17\X64\DEBUG\ENEMY.OBJ|D:\GC2A21\C++\CPP_KADAI\課題17\X64\DEBUG\GAME.OBJ|D:\GC2A21\C++\CPP_KADAI\課題17\X64\DEBUG\MAIN.OBJ|D:\GC2A21\C++\CPP_KADAI\課題17\X64\DEBUG\PLAYER.OBJ
D:\GC2A21\C++\CPP_KADAI\X64\DEBUG\課題17.ILK
D:\GC2A21\C++\CPP_KADAI\X64\DEBUG\課題17.EXE
D:\GC2A21\C++\CPP_KADAI\X64\DEBUG\課題17.PDB
