^D:\GC2A21\C++\CPP_KADAI\課題2\X64\DEBUG\MAIN.OBJ|D:\GC2A21\C++\CPP_KADAI\課題2\X64\DEBUG\TRIANGLECLASS.OBJ
D:\GC2A21\C++\CPP_KADAI\X64\DEBUG\課題2.EXE
D:\GC2A21\C++\CPP_KADAI\X64\DEBUG\課題2.ILK
D:\GC2A21\C++\CPP_KADAI\X64\DEBUG\課題2.PDB
