^D:\GC2A21\C++\CPP_KADAI\課題10\X64\DEBUG\CIRCLE.OBJ|D:\GC2A21\C++\CPP_KADAI\課題10\X64\DEBUG\MAIN.OBJ
D:\GC2A21\C++\CPP_KADAI\X64\DEBUG\課題10.ILK
D:\GC2A21\C++\CPP_KADAI\X64\DEBUG\課題10.EXE
D:\GC2A21\C++\CPP_KADAI\X64\DEBUG\課題10.PDB
