^D:\GC2A21\C++\CPP_KADAI\課題7\X64\DEBUG\MAIN.OBJ|D:\GC2A21\C++\CPP_KADAI\課題7\X64\DEBUG\STATUS.OBJ
D:\GC2A21\C++\CPP_KADAI\X64\DEBUG\課題7+8.EXE
D:\GC2A21\C++\CPP_KADAI\X64\DEBUG\課題7+8.ILK
D:\GC2A21\C++\CPP_KADAI\X64\DEBUG\課題7+8.PDB
