^D:\GC2A21\C++\C++ KADAI\CPP_KADAI\課題16\FIGURE.CPP|D:\GC2A21\C++\C++ KADAI\CPP_KADAI\課題16\MAIN.CPP|D:\GC2A21\C++\C++ KADAI\CPP_KADAI\課題16\SQUARE.CPP|D:\GC2A21\C++\C++ KADAI\CPP_KADAI\課題16\TRIANGLE.CPP
D:\GC2A21\C++\C++ KADAI\CPP_KADAI\課題16\DEBUG\VC142.PDB
D:\GC2A21\C++\C++ KADAI\CPP_KADAI\課題16\DEBUG\VC142.IDB
D:\GC2A21\C++\C++ KADAI\CPP_KADAI\課題16\DEBUG\TRIANGLE.OBJ
D:\GC2A21\C++\C++ KADAI\CPP_KADAI\課題16\DEBUG\SQUARE.OBJ
D:\GC2A21\C++\C++ KADAI\CPP_KADAI\課題16\DEBUG\MAIN.OBJ
D:\GC2A21\C++\C++ KADAI\CPP_KADAI\課題16\DEBUG\FIGURE.OBJ
^D:\GC2A21\C++\C++ KADAI\CPP_KADAI\課題16\FIGURE.CPP
D:\GC2A21\C++\C++ KADAI\CPP_KADAI\課題16\DEBUG\VC142.PDB
^D:\GC2A21\C++\C++ KADAI\CPP_KADAI\課題16\MAIN.CPP
D:\GC2A21\C++\C++ KADAI\CPP_KADAI\課題16\DEBUG\VC142.PDB
^D:\GC2A21\C++\C++ KADAI\CPP_KADAI\課題16\SQUARE.CPP
D:\GC2A21\C++\C++ KADAI\CPP_KADAI\課題16\DEBUG\VC142.PDB
^D:\GC2A21\C++\C++ KADAI\CPP_KADAI\課題16\TRIANGLE.CPP
D:\GC2A21\C++\C++ KADAI\CPP_KADAI\課題16\DEBUG\VC142.PDB
