^D:\GC2A21\C++\C++ KADAI\CPP_KADAI\課題7\MAIN.CPP|D:\GC2A21\C++\C++ KADAI\CPP_KADAI\課題7\STATUS.CPP
D:\GC2A21\C++\C++ KADAI\CPP_KADAI\課題7\DEBUG\VC142.PDB
D:\GC2A21\C++\C++ KADAI\CPP_KADAI\課題7\DEBUG\VC142.IDB
D:\GC2A21\C++\C++ KADAI\CPP_KADAI\課題7\DEBUG\STATUS.OBJ
^D:\GC2A21\C++\C++ KADAI\CPP_KADAI\課題7\STATUS.CPP
D:\GC2A21\C++\C++ KADAI\CPP_KADAI\課題7\DEBUG\STATUS.OBJ
^D:\GC2A21\C++\C++ KADAI\CPP_KADAI\課題7\MAIN.CPP
D:\GC2A21\C++\C++ KADAI\CPP_KADAI\課題7\DEBUG\VC142.PDB
D:\GC2A21\C++\C++ KADAI\CPP_KADAI\課題7\DEBUG\VC142.IDB
D:\GC2A21\C++\C++ KADAI\CPP_KADAI\課題7\DEBUG\MAIN.OBJ
